<?xml version="1.0" encoding="UTF-8" standalone="no"?>
<!-- Created with Inkscape (http://www.inkscape.org/) -->

<svg
   xmlns:dc="http://purl.org/dc/elements/1.1/"
   xmlns:cc="http://creativecommons.org/ns#"
   xmlns:rdf="http://www.w3.org/1999/02/22-rdf-syntax-ns#"
   xmlns:svg="http://www.w3.org/2000/svg"
   xmlns="http://www.w3.org/2000/svg"
   xmlns:sodipodi="http://sodipodi.sourceforge.net/DTD/sodipodi-0.dtd"
   xmlns:inkscape="http://www.inkscape.org/namespaces/inkscape"
   width="100"
   height="100"
   viewBox="0 0 26.458334 26.458333"
   version="1.1"
   id="svg8"
   inkscape:version="0.92.3 (2405546, 2018-03-11)"
   sodipodi:docname="remmina-www-symbolic.svg">
  <title
     id="title4674">remmina-resail-symbolic</title>
  <defs
     id="defs2" />
  <sodipodi:namedview
     id="base"
     pagecolor="#ffffff"
     bordercolor="#666666"
     borderopacity="1.0"
     inkscape:pageopacity="0"
     inkscape:pageshadow="2"
     inkscape:zoom="4.1973765"
     inkscape:cx="44.378916"
     inkscape:cy="21.504897"
     inkscape:document-units="px"
     inkscape:current-layer="layer1"
     inkscape:document-rotation="0"
     showgrid="false"
     borderlayer="true"
     inkscape:showpageshadow="true"
     units="px"
     inkscape:pagecheckerboard="false"
     showguides="false"
     inkscape:window-width="1920"
     inkscape:window-height="1060"
     inkscape:window-x="1920"
     inkscape:window-y="0"
     inkscape:window-maximized="0"
     objecttolerance="10"
     guidetolerance="10"
     inkscape:snap-tangential="true"
     inkscape:snap-perpendicular="true"
     fit-margin-top="0"
     fit-margin-left="0"
     fit-margin-right="0"
     fit-margin-bottom="0">
    <inkscape:grid
       type="xygrid"
       id="grid10"
       dotted="false"
       originx="-190.61239"
       originy="-78.157086" />
  </sodipodi:namedview>
  <metadata
     id="metadata5">
    <rdf:RDF>
      <cc:Work
         rdf:about="">
        <dc:format>image/svg+xml</dc:format>
        <dc:type
           rdf:resource="http://purl.org/dc/dcmitype/StillImage" />
        <dc:title>remmina-resail-symbolic</dc:title>
        <cc:license
           rdf:resource="http://creativecommons.org/licenses/by-nc-sa/4.0/" />
        <dc:creator>
          <cc:Agent>
            <dc:title>Antenore Gatta</dc:title>
          </cc:Agent>
        </dc:creator>
        <dc:rights>
          <cc:Agent>
            <dc:title>Antenore Gatta 2019</dc:title>
          </cc:Agent>
        </dc:rights>
      </cc:Work>
      <cc:License
         rdf:about="http://creativecommons.org/licenses/by-nc-sa/4.0/">
        <cc:permits
           rdf:resource="http://creativecommons.org/ns#Reproduction" />
        <cc:permits
           rdf:resource="http://creativecommons.org/ns#Distribution" />
        <cc:requires
           rdf:resource="http://creativecommons.org/ns#Notice" />
        <cc:requires
           rdf:resource="http://creativecommons.org/ns#Attribution" />
        <cc:prohibits
           rdf:resource="http://creativecommons.org/ns#CommercialUse" />
        <cc:permits
           rdf:resource="http://creativecommons.org/ns#DerivativeWorks" />
        <cc:requires
           rdf:resource="http://creativecommons.org/ns#ShareAlike" />
      </cc:License>
    </rdf:RDF>
  </metadata>
  <g
     inkscape:label="Layer 1"
     inkscape:groupmode="layer"
     id="layer1"
     transform="translate(-190.61238,-192.38458)">
    <g
       style="isolation:isolate"
       id="Group"
       transform="matrix(0.26458333,0,0,0.26458333,153.78079,124.26165)" />
    <g
       style="isolation:isolate"
       id="g62"
       transform="matrix(0.26458333,0,0,0.26458333,153.78079,124.26165)">
      <g
         id="g52" />
      <g
         id="g54" />
      <g
         id="g56" />
      <g
         id="g60">
        <g
           id="g58" />
      </g>
    </g>
    <path
       style="opacity:1;fill:#000000;fill-opacity:0.87999998;stroke:none;stroke-width:2.91110802;stroke-miterlimit:4;stroke-dasharray:none;stroke-opacity:1"
       d="M 50 1.6816406 A 48.655695 48.318765 0 0 0 1.34375 50 A 48.655695 48.318765 0 0 0 50 98.318359 A 48.655695 48.318765 0 0 0 98.65625 50 A 48.655695 48.318765 0 0 0 50 1.6816406 z M 29.576172 15.396484 L 31.576172 67.396484 L 43.203125 16.888672 L 56.087891 16.888672 L 67.576172 67.396484 L 69.576172 15.396484 L 83.330078 18.236328 L 74.576172 85.396484 L 61.576172 85.132812 L 49.361328 33.128906 L 37.576172 85.396484 L 24.576172 85.396484 L 15.322266 18.236328 L 29.576172 15.396484 z "
       transform="matrix(0.26458333,0,0,0.26458333,190.61238,192.38458)"
       id="path4668" />
  </g>
</svg>
